{
    "name": "Blog",
    "alias": "blog",
    "description": "",
    "keywords": [],
    "order": 0,
    "providers": [
        "OctoCmsModule\\Blog\\Providers\\BlogServiceProvider"
    ],
    "aliases": {},
    "files": [],
    "requires": []
}
